%YAML 1.1
%TAG !u! tag:unity3d.com,2011:
--- !u!1 &6488624745514173169
GameObject:
  m_ObjectHideFlags: 0
  m_CorrespondingSourceObject: {fileID: 0}
  m_PrefabInstance: {fileID: 0}
  m_PrefabAsset: {fileID: 0}
  serializedVersion: 6
  m_Component:
  - component: {fileID: 1888725994299682920}
  m_Layer: 11
  m_Name: PropsGraphic
  m_TagString: Untagged
  m_Icon: {fileID: 0}
  m_NavMeshLayer: 0
  m_StaticEditorFlags: 4294967295
  m_IsActive: 1
--- !u!4 &1888725994299682920
Transform:
  m_ObjectHideFlags: 0
  m_CorrespondingSourceObject: {fileID: 0}
  m_PrefabInstance: {fileID: 0}
  m_PrefabAsset: {fileID: 0}
  m_GameObject: {fileID: 6488624745514173169}
  m_LocalRotation: {x: 0, y: 0, z: 0, w: 1}
  m_LocalPosition: {x: 0, y: 0, z: 0}
  m_LocalScale: {x: 1, y: 1, z: 1}
  m_Children:
  - {fileID: 4233846390100958056}
  m_Father: {fileID: 735487679234833172}
  m_RootOrder: 2
  m_LocalEulerAnglesHint: {x: 0, y: 0, z: 0}
--- !u!1001 &1242107800005333652
PrefabInstance:
  m_ObjectHideFlags: 0
  serializedVersion: 2
  m_Modification:
    m_TransformParent: {fileID: 3356871109317835380}
    m_Modifications:
    - target: {fileID: 1290026134015930, guid: 74da286b950020745b667e6d613b1b8e, type: 3}
      propertyPath: m_Name
      value: Chair_Office_Graphic
      objectReference: {fileID: 0}
    - target: {fileID: 1290026134015930, guid: 74da286b950020745b667e6d613b1b8e, type: 3}
      propertyPath: m_IsActive
      value: 1
      objectReference: {fileID: 0}
    - target: {fileID: 1290026134015930, guid: 74da286b950020745b667e6d613b1b8e, type: 3}
      propertyPath: m_StaticEditorFlags
      value: 4294967295
      objectReference: {fileID: 0}
    - target: {fileID: 4349387208462378, guid: 74da286b950020745b667e6d613b1b8e, type: 3}
      propertyPath: m_RootOrder
      value: 0
      objectReference: {fileID: 0}
    - target: {fileID: 4349387208462378, guid: 74da286b950020745b667e6d613b1b8e, type: 3}
      propertyPath: m_LocalPosition.x
      value: 0
      objectReference: {fileID: 0}
    - target: {fileID: 4349387208462378, guid: 74da286b950020745b667e6d613b1b8e, type: 3}
      propertyPath: m_LocalPosition.y
      value: 0
      objectReference: {fileID: 0}
    - target: {fileID: 4349387208462378, guid: 74da286b950020745b667e6d613b1b8e, type: 3}
      propertyPath: m_LocalPosition.z
      value: 0
      objectReference: {fileID: 0}
    - target: {fileID: 4349387208462378, guid: 74da286b950020745b667e6d613b1b8e, type: 3}
      propertyPath: m_LocalRotation.w
      value: 1
      objectReference: {fileID: 0}
    - target: {fileID: 4349387208462378, guid: 74da286b950020745b667e6d613b1b8e, type: 3}
      propertyPath: m_LocalRotation.x
      value: 0.000000021855694
      objectReference: {fileID: 0}
    - target: {fileID: 4349387208462378, guid: 74da286b950020745b667e6d613b1b8e, type: 3}
      propertyPath: m_LocalRotation.y
      value: -0
      objectReference: {fileID: 0}
    - target: {fileID: 4349387208462378, guid: 74da286b950020745b667e6d613b1b8e, type: 3}
      propertyPath: m_LocalRotation.z
      value: -0
      objectReference: {fileID: 0}
    - target: {fileID: 4349387208462378, guid: 74da286b950020745b667e6d613b1b8e, type: 3}
      propertyPath: m_LocalEulerAnglesHint.x
      value: 0
      objectReference: {fileID: 0}
    - target: {fileID: 4349387208462378, guid: 74da286b950020745b667e6d613b1b8e, type: 3}
      propertyPath: m_LocalEulerAnglesHint.y
      value: 0
      objectReference: {fileID: 0}
    - target: {fileID: 4349387208462378, guid: 74da286b950020745b667e6d613b1b8e, type: 3}
      propertyPath: m_LocalEulerAnglesHint.z
      value: 0
      objectReference: {fileID: 0}
    m_RemovedComponents:
    - {fileID: 65771826198715752, guid: 74da286b950020745b667e6d613b1b8e, type: 3}
  m_SourcePrefab: {fileID: 100100000, guid: 74da286b950020745b667e6d613b1b8e, type: 3}
--- !u!1001 &2481275919504593100
PrefabInstance:
  m_ObjectHideFlags: 0
  serializedVersion: 2
  m_Modification:
    m_TransformParent: {fileID: 0}
    m_Modifications:
    - target: {fileID: 898176284866189688, guid: 2cc96e8d46f366f4f818f422436805b4,
        type: 3}
      propertyPath: m_IsActive
      value: 1
      objectReference: {fileID: 0}
    - target: {fileID: 2337131731412506850, guid: 2cc96e8d46f366f4f818f422436805b4,
        type: 3}
      propertyPath: workPlaceType
      value: 4
      objectReference: {fileID: 0}
    - target: {fileID: 2337131731412506850, guid: 2cc96e8d46f366f4f818f422436805b4,
        type: 3}
      propertyPath: characterToSpawn
      value: 4
      objectReference: {fileID: 0}
    - target: {fileID: 2337131731412506850, guid: 2cc96e8d46f366f4f818f422436805b4,
        type: 3}
      propertyPath: workCharacterTaskType
      value: 3
      objectReference: {fileID: 0}
    - target: {fileID: 2903265988022403104, guid: 2cc96e8d46f366f4f818f422436805b4,
        type: 3}
      propertyPath: m_RootOrder
      value: 0
      objectReference: {fileID: 0}
    - target: {fileID: 2903265988022403104, guid: 2cc96e8d46f366f4f818f422436805b4,
        type: 3}
      propertyPath: m_LocalPosition.x
      value: 0
      objectReference: {fileID: 0}
    - target: {fileID: 2903265988022403104, guid: 2cc96e8d46f366f4f818f422436805b4,
        type: 3}
      propertyPath: m_LocalPosition.y
      value: 0
      objectReference: {fileID: 0}
    - target: {fileID: 2903265988022403104, guid: 2cc96e8d46f366f4f818f422436805b4,
        type: 3}
      propertyPath: m_LocalPosition.z
      value: 0
      objectReference: {fileID: 0}
    - target: {fileID: 2903265988022403104, guid: 2cc96e8d46f366f4f818f422436805b4,
        type: 3}
      propertyPath: m_LocalRotation.w
      value: 1
      objectReference: {fileID: 0}
    - target: {fileID: 2903265988022403104, guid: 2cc96e8d46f366f4f818f422436805b4,
        type: 3}
      propertyPath: m_LocalRotation.x
      value: 0
      objectReference: {fileID: 0}
    - target: {fileID: 2903265988022403104, guid: 2cc96e8d46f366f4f818f422436805b4,
        type: 3}
      propertyPath: m_LocalRotation.y
      value: 0
      objectReference: {fileID: 0}
    - target: {fileID: 2903265988022403104, guid: 2cc96e8d46f366f4f818f422436805b4,
        type: 3}
      propertyPath: m_LocalRotation.z
      value: 0
      objectReference: {fileID: 0}
    - target: {fileID: 2903265988022403104, guid: 2cc96e8d46f366f4f818f422436805b4,
        type: 3}
      propertyPath: m_LocalEulerAnglesHint.x
      value: 0
      objectReference: {fileID: 0}
    - target: {fileID: 2903265988022403104, guid: 2cc96e8d46f366f4f818f422436805b4,
        type: 3}
      propertyPath: m_LocalEulerAnglesHint.y
      value: 0
      objectReference: {fileID: 0}
    - target: {fileID: 2903265988022403104, guid: 2cc96e8d46f366f4f818f422436805b4,
        type: 3}
      propertyPath: m_LocalEulerAnglesHint.z
      value: 0
      objectReference: {fileID: 0}
    - target: {fileID: 2903265988022403105, guid: 2cc96e8d46f366f4f818f422436805b4,
        type: 3}
      propertyPath: m_Name
      value: WorkplaceGraphic
      objectReference: {fileID: 0}
    - target: {fileID: 2904371545056107472, guid: 2cc96e8d46f366f4f818f422436805b4,
        type: 3}
      propertyPath: m_IsActive
      value: 0
      objectReference: {fileID: 0}
    - target: {fileID: 5290835620766656116, guid: 2cc96e8d46f366f4f818f422436805b4,
        type: 3}
      propertyPath: m_IsActive
      value: 1
      objectReference: {fileID: 0}
    - target: {fileID: 7477191031611020583, guid: 2cc96e8d46f366f4f818f422436805b4,
        type: 3}
      propertyPath: m_RootOrder
      value: 1
      objectReference: {fileID: 0}
    m_RemovedComponents: []
  m_SourcePrefab: {fileID: 100100000, guid: 2cc96e8d46f366f4f818f422436805b4, type: 3}
--- !u!4 &735487679234833172 stripped
Transform:
  m_CorrespondingSourceObject: {fileID: 2908121843589884888, guid: 2cc96e8d46f366f4f818f422436805b4,
    type: 3}
  m_PrefabInstance: {fileID: 2481275919504593100}
  m_PrefabAsset: {fileID: 0}
--- !u!4 &3356871109317835380 stripped
Transform:
  m_CorrespondingSourceObject: {fileID: 934852272710773432, guid: 2cc96e8d46f366f4f818f422436805b4,
    type: 3}
  m_PrefabInstance: {fileID: 2481275919504593100}
  m_PrefabAsset: {fileID: 0}
--- !u!1001 &4237325357293704518
PrefabInstance:
  m_ObjectHideFlags: 0
  serializedVersion: 2
  m_Modification:
    m_TransformParent: {fileID: 1888725994299682920}
    m_Modifications:
    - target: {fileID: 1817072745897592, guid: a76d0962e5aaba2479107524e448f23d, type: 3}
      propertyPath: m_Name
      value: Tablet
      objectReference: {fileID: 0}
    - target: {fileID: 1817072745897592, guid: a76d0962e5aaba2479107524e448f23d, type: 3}
      propertyPath: m_IsActive
      value: 1
      objectReference: {fileID: 0}
    - target: {fileID: 1817072745897592, guid: a76d0962e5aaba2479107524e448f23d, type: 3}
      propertyPath: m_StaticEditorFlags
      value: 4294967295
      objectReference: {fileID: 0}
    - target: {fileID: 4402626770144814, guid: a76d0962e5aaba2479107524e448f23d, type: 3}
      propertyPath: m_RootOrder
      value: 0
      objectReference: {fileID: 0}
    - target: {fileID: 4402626770144814, guid: a76d0962e5aaba2479107524e448f23d, type: 3}
      propertyPath: m_LocalPosition.x
      value: 0.5
      objectReference: {fileID: 0}
    - target: {fileID: 4402626770144814, guid: a76d0962e5aaba2479107524e448f23d, type: 3}
      propertyPath: m_LocalPosition.y
      value: 0.74
      objectReference: {fileID: 0}
    - target: {fileID: 4402626770144814, guid: a76d0962e5aaba2479107524e448f23d, type: 3}
      propertyPath: m_LocalPosition.z
      value: -0.25000003
      objectReference: {fileID: 0}
    - target: {fileID: 4402626770144814, guid: a76d0962e5aaba2479107524e448f23d, type: 3}
      propertyPath: m_LocalRotation.w
      value: 0
      objectReference: {fileID: 0}
    - target: {fileID: 4402626770144814, guid: a76d0962e5aaba2479107524e448f23d, type: 3}
      propertyPath: m_LocalRotation.x
      value: -0
      objectReference: {fileID: 0}
    - target: {fileID: 4402626770144814, guid: a76d0962e5aaba2479107524e448f23d, type: 3}
      propertyPath: m_LocalRotation.y
      value: 0.7071068
      objectReference: {fileID: 0}
    - target: {fileID: 4402626770144814, guid: a76d0962e5aaba2479107524e448f23d, type: 3}
      propertyPath: m_LocalRotation.z
      value: 0.7071068
      objectReference: {fileID: 0}
    - target: {fileID: 4402626770144814, guid: a76d0962e5aaba2479107524e448f23d, type: 3}
      propertyPath: m_LocalEulerAnglesHint.x
      value: -90
      objectReference: {fileID: 0}
    - target: {fileID: 4402626770144814, guid: a76d0962e5aaba2479107524e448f23d, type: 3}
      propertyPath: m_LocalEulerAnglesHint.y
      value: 180
      objectReference: {fileID: 0}
    - target: {fileID: 4402626770144814, guid: a76d0962e5aaba2479107524e448f23d, type: 3}
      propertyPath: m_LocalEulerAnglesHint.z
      value: 0
      objectReference: {fileID: 0}
    m_RemovedComponents:
    - {fileID: 65668122333127614, guid: a76d0962e5aaba2479107524e448f23d, type: 3}
  m_SourcePrefab: {fileID: 100100000, guid: a76d0962e5aaba2479107524e448f23d, type: 3}
--- !u!4 &4233846390100958056 stripped
Transform:
  m_CorrespondingSourceObject: {fileID: 4402626770144814, guid: a76d0962e5aaba2479107524e448f23d,
    type: 3}
  m_PrefabInstance: {fileID: 4237325357293704518}
  m_PrefabAsset: {fileID: 0}
